"","Start_Time","Huts","Versions","Booked_Time","Users","Users.group","Num_Addie","AER_MILEAGE","UG_MILEAGE","Month","Market"
"1","2015-08-19,2015-08-20,2015-08-21","AUS112","pre-CRO v1",15.75,"James Lewis","Alexander Brazel,James Lewis",42640,217.928247067257,16.5043141871645,"August","AUS"
"2","2015-08-19,2015-08-20,2015-08-21","AUS113","pre-CRO v1",17,"Lewis Kerin","Lewis Kerin",23638,105.011522808222,70.1958925874206,"August","AUS"
"3","2015-08-25,2015-08-26,2015-08-27,2015-08-28","AUS107","pre-CRO v1",9,"Alexander Brazel","Alexander Brazel",32137,127.645305960121,116.278554825247,"August","AUS"
"4","2015-08-25,2015-08-26,2015-08-27,2015-08-28","AUS115","pre-CRO v1",16.25,"James Lewis","James Lewis,Lewis Kerin",42892,123.754930984141,161.543101150407,"August","AUS"
"5","2015-08-26,2015-08-27,2015-08-28","AUS119","pre-CRO v1",14.75,"Lewis Kerin","Lewis Kerin",45675,57.6263192358708,275.883766370267,"August","AUS"
"6","2015-08-31,2015-09-01,2015-09-02,2015-09-04","AUS120","pre-CRO v1",25,"Alexander Brazel","Alexander Brazel,James Lewis,Thomas Stubbs",41364,90.2381734216608,162.063048341946,"August","AUS"
"7","2015-09-01,2015-09-04,2015-09-07,2015-09-08,2015-09-09","AUS112","pre-CRO v2",27,"James Lewis","James Lewis",42640,217.928247067257,16.5043141871645,"September","AUS"
"8","2015-09-07,2015-09-08,2015-09-09,2015-09-10","AUS113","pre-CRO v2",10.75,"Lewis Kerin","Lewis Kerin",23638,105.011522808222,70.1958925874206,"September","AUS"
"9","2015-09-07,2015-09-15,2015-09-16,2015-09-17,2015-09-18,2015-09-21,2015-09-22,2015-09-23","AUS115","pre-CRO v2",43,"James Lewis","Chang Liu,James Lewis,Lewis Kerin,Thomas Stubbs",42892,123.754930984141,161.543101150407,"September","AUS"
"10","2015-09-10,2015-09-11,2015-09-14,2015-09-15,2015-09-16,2015-09-17,2015-09-18","AUS107","pre-CRO v2",31.5,"Alexander Brazel","Alexander Brazel,Corey Dexter",32137,127.645305960121,116.278554825247,"September","AUS"
"11","2015-09-15,2015-09-16,2015-09-17,2015-09-18,2015-09-20,2015-09-21,2015-09-22,2015-09-23,2015-09-24,2015-09-25","AUS119","pre-CRO v2",86.75,"Chang Liu","Alexander Brazel,Chang Liu,James Lewis,Justin Carmody,Louise Lawson,Suryakumar Durai,Thomas Stubbs",45675,57.6263192358708,275.883766370267,"September","AUS"
"12","2015-09-17,2015-09-18,2015-09-19","PDX106","pre-CRO v1",24.75,"June Yau","John Iannello,June Yau",43625,218.71924517953,34.2527297969204,"September","PDX"
"13","2015-09-21,2015-09-22,2015-09-23,2015-09-24,2015-09-25","AUS120","pre-CRO v2",32.75,"James Lewis","James Lewis,June Yau,Thomas Stubbs",41364,90.2381734216608,162.063048341946,"September","AUS"
"14","2015-09-23,2015-09-24,2015-09-28,2015-09-29,2015-09-30,2015-10-01","PDX114","pre-CRO v1",24.75,"Alexander Brazel","Alexander Brazel,Sachith Thomas",38625,197.828063679003,41.0225593675064,"September","PDX"
"15","2015-09-29,2015-09-30,2015-10-01,2015-10-02,2015-10-08","PDX109","pre-CRO v1",34,"John Iannello","Chang Liu,John Iannello",38231,190.348172161396,107.044025873635,"September","PDX"
"16","2015-10-01,2015-10-02,2015-10-06,2015-10-07","PDX122","pre-CRO v1",49,"Justin Carmody","Chang Liu,Justin Carmody",39557,238.835057298406,59.4225326018045,"October","PDX"
"17","2015-10-05,2015-10-06,2015-10-07,2015-10-08","PDX121","pre-CRO v1",43.5,"Nam Bui","Chang Liu,John Iannello,Nam Bui",31982,88.3277836815484,205.143822866395,"October","PDX"
"18","2015-10-09,2015-10-10,2015-10-11,2015-10-12,2015-10-13,2015-10-14,2015-10-15","PDX108","pre-CRO v1",31.5,"Chang Liu","Chang Liu,Justin Carmody",42911,258.946849112965,48.6851922275906,"October","PDX"
"19","2015-10-09,2015-10-12,2015-10-13,2015-10-14,2015-10-15","PDX116","pre-CRO v1",21.5,"James Lewis","James Lewis",40495,182.037628027074,9.11322139063788,"October","PDX"
"20","2015-10-21,2015-10-22,2015-10-23","PDX119","pre-CRO v1",15.75,"Lewis Kerin","Lewis Kerin",46680,76.1740903416102,43.8591800602481,"October","PDX"
"21","2015-10-22,2015-10-23,2015-10-24","PDX106","pre-CRO v2",33.75,"June Yau","June Yau",43625,218.71924517953,34.2527297969204,"October","PDX"
"22","2015-10-22,2015-10-29,2015-10-30,2015-11-02,2015-11-04,2015-11-05,2015-11-06,2015-11-08","PDX109","pre-CRO v2",53,"Chang Liu","Chang Liu",38231,190.348172161396,107.044025873635,"October","PDX"
"23","2015-10-28,2015-10-29,2015-10-30","PDX107","pre-CRO v1",18.75,"James Lewis","James Lewis",38144,228.449695967658,99.9924149440681,"October","PDX"
"24","2015-11-03,2015-11-11,2015-11-12","PDX114","pre-CRO v2",8.5,"Chang Liu","Chang Liu,Shaun Karran",38625,197.828063679003,41.0225593675064,"November","PDX"
"25","2015-11-04,2015-11-05","PDX106","pre-CRO v3",7,"June Yau","June Yau",43625,218.71924517953,34.2527297969204,"November","PDX"
"26","2015-11-10","PDX110","pre-CRO v1",4.5,"James Lewis","James Lewis",37924,149.850932289404,125.46771657104,"November","PDX"
"27","2015-11-10,2015-11-11,2015-11-12,2015-11-13,2015-11-14,2015-11-15,2015-11-16,2015-11-17,2015-11-18,2015-11-19,2015-11-20","PDX122","pre-CRO v2",92.75,"Suryakumar Durai","Chang Liu,Suryakumar Durai",39557,238.835057298406,59.4225326018045,"November","PDX"
"28","2015-11-11,2015-11-12,2015-11-13","PDX123","pre-CRO v1",29,"James Lewis","Alexander Brazel,James Lewis",39608,38.905266048166,315.437270410879,"November","PDX"
"29","2015-11-18,2015-11-19,2015-11-20","PDX121","pre-CRO v2",19.25,"Nam Bui","Nam Bui",31982,88.3277836815484,205.143822866395,"November","PDX"
"30","2015-11-19,2015-11-20,2015-11-21,2015-11-22","PDX113","pre-CRO v1",37.75,"June Yau","Chang Liu,June Yau",40373,49.2088055952976,312.495018926384,"November","PDX"
"31","2015-11-19,2015-11-20","SDF113","pre-CRO v1",19.75,"Lewis Kerin","Lewis Kerin",40386,207.741013903547,29.6667759570195,"November","SDF"
"32","2015-11-23","PDX110","pre-CRO v2",0.5,"Lewis Kerin","Lewis Kerin",37924,149.850932289404,125.46771657104,"November","PDX"
"33","2015-11-23","PDX123","pre-CRO v2",0.5,"Lewis Kerin","Lewis Kerin",39608,38.905266048166,315.437270410879,"November","PDX"
"34","2015-11-24,2015-11-25,2015-11-26,2015-11-27,2015-11-28,2015-11-30","PDX116","pre-CRO v2",28,"Alexander Brazel","Alexander Brazel,John Iannello",40495,182.037628027074,9.11322139063788,"November","PDX"
"35","2015-11-24,2015-11-25,2015-11-26,2015-12-01,2015-12-03,2015-12-07,2015-12-08,2015-12-09,2015-12-10,2015-12-11","PDX119","pre-CRO v2",58.25,"Trevor Gudenswager","Trevor Gudenswager",46680,76.1740903416102,43.8591800602481,"November","PDX"
"36","2015-11-25,2015-11-26,2015-11-27,2015-11-28","SDF106","pre-CRO v1",20.75,"Corey Dexter","Corey Dexter",40197,168.509782675808,25.8309010788755,"November","SDF"
"37","2015-11-25,2015-11-26,2015-11-27,2015-11-28,2015-11-30","SDF109","pre-CRO v1",21.5,"Joao Cruz","Joao Cruz,John Iannello",27369,158.583263644355,61.6466205956964,"November","SDF"
"38","2015-11-26,2015-11-27","PDX106","post-CRO v1",13.5,"Chang Liu","Chang Liu",43625,218.71924517953,34.2527297969204,"November","PDX"
"39","2015-11-26,2015-11-27,2015-11-28,2015-11-29,2015-11-30,2015-12-01,2015-12-02,2015-12-03,2015-12-04,2015-12-06,2015-12-07","PDX108","pre-CRO v2",68.75,"Suryakumar Durai","Suryakumar Durai",42911,258.946849112965,48.6851922275906,"November","PDX"
"40","2015-11-30,2015-12-01,2015-12-07,2015-12-08","PDX109","pre-CRO v3",23.25,"Corey Dexter","Chang Liu,Corey Dexter",38231,190.348172161396,107.044025873635,"November","PDX"
"41","2015-12-03,2015-12-04,2015-12-07,2015-12-08","PDX129","pre-CRO v1",20.75,"Nam Bui","Corey Dexter,James Lewis,Nam Bui",40217,51.2468740505096,176.543798550511,"December","PDX"
"42","2015-12-07,2015-12-08,2015-12-09","SDF110","pre-CRO v1",24,"June Yau","June Yau",40780,178.010254573655,277.839144661263,"December","SDF"
"43","2015-12-08,2015-12-09,2015-12-10,2015-12-11,2015-12-12,2015-12-13,2015-12-14,2015-12-15","PDX107","pre-CRO v2",52.75,"Suryakumar Durai","Suryakumar Durai",38144,228.449695967658,99.9924149440681,"December","PDX"
"44","2015-12-09,2015-12-10","SDF113","pre-CRO v2",7,"James Lewis","James Lewis",40386,207.741013903547,29.6667759570195,"December","SDF"
"45","2015-12-11,2015-12-12,2015-12-14","SDF116","pre-CRO v1",10.5,"John Iannello","John Iannello",36275,257.521700922613,28.9237666878863,"December","SDF"
"46","2015-12-14,2015-12-15,2015-12-16,2015-12-17","SDF106","pre-CRO v2",20.75,"Corey Dexter","Corey Dexter",40197,168.509782675808,25.8309010788755,"December","SDF"
"47","2015-12-15,2015-12-16,2015-12-17,2015-12-18,2015-12-21,2015-12-22,2016-01-07","AUS113","pre-CRO v3",30.25,"Lewis Kerin","Lewis Kerin",23638,105.011522808222,70.1958925874206,"December","AUS"
"48","2015-12-16,2015-12-17,2015-12-18,2015-12-20,2015-12-21,2015-12-22,2015-12-23","PDX110","pre-CRO v3",54.75,"Suryakumar Durai","Suryakumar Durai",37924,149.850932289404,125.46771657104,"December","PDX"
"49","2015-12-17,2015-12-18,2015-12-19,2015-12-21","PDX115","pre-CRO v1",19.5,"Joao Cruz","Joao Cruz",17984,45.067541599639,121.41221633828,"December","PDX"
"50","2015-12-18,2015-12-21,2015-12-22","SDF111","pre-CRO v1",15.25,"Corey Dexter","Corey Dexter",38126,75.9569658061113,214.60009990035,"December","SDF"
"51","2015-12-22,2015-12-23,2015-12-24","MCI155","pre-CRO v1",24,"Shaun Karran","John Iannello,Shaun Karran",8709,0.2841727803292,106.757391965385,"December","MCI"
"52","2015-12-22,2015-12-23,2015-12-24","SDF108","pre-CRO v1",9,"John Iannello","Joao Cruz,John Iannello",39194,217.058174836606,134.823019508468,"December","SDF"
"53","2016-01-04,2016-01-12,2016-01-13,2016-01-14,2016-01-15,2016-01-16","AUS107","pre-CRO v3",27.5,"Lewis Kerin","Lewis Kerin",32137,127.645305960121,116.278554825247,"January","AUS"
"54","2016-01-04","PDX109","post-CRO v1",1.25,"Corey Dexter","Corey Dexter",38231,190.348172161396,107.044025873635,"January","PDX"
"55","2016-01-04,2016-01-05","SDF108","pre-CRO v2",15,"Nam Bui","Nam Bui",39194,217.058174836606,134.823019508468,"January","SDF"
"56","2016-01-04,2016-01-05","SDF109","pre-CRO v2",15.25,"June Yau","June Yau",27369,158.583263644355,61.6466205956964,"January","SDF"
"57","2016-01-05","AUS112","post-CRO v1",8.5,"Chang Liu","Chang Liu",42640,217.928247067257,16.5043141871645,"January","AUS"
"58","2016-01-05,2016-01-06,2016-01-07,2016-01-08","PDX111","pre-CRO v1",21,"Corey Dexter","Corey Dexter",29536,152.888364635787,175.737241223094,"January","PDX"
"59","2016-01-07,2016-01-08,2016-01-11,2016-01-12,2016-01-13,2016-01-14","PDX113","pre-CRO v2",41.5,"Justin Carmody","Justin Carmody",40373,49.2088055952976,312.495018926384,"January","PDX"
"60","2016-01-08","SDF113","pre-CRO v3",3.75,"Chang Liu","Chang Liu",40386,207.741013903547,29.6667759570195,"January","SDF"
"61","2016-01-11,2016-01-12,2016-01-13,2016-01-14","SDF116","pre-CRO v2",38,"June Yau","Chang Liu,June Yau",36275,257.521700922613,28.9237666878863,"January","SDF"
"62","2016-01-12,2016-01-13,2016-01-14,2016-01-15","SDF110","pre-CRO v2",32.25,"June Yau","Chang Liu,June Yau",40780,178.010254573655,277.839144661263,"January","SDF"
"63","2016-01-12,2016-01-13,2016-01-14,2016-01-15","SDF112","pre-CRO v1",30,"Trevor Gudenswager","Trevor Gudenswager",36990,190.65564843403,89.8145529035189,"January","SDF"
"64","2016-01-13,2016-01-14,2016-01-15","PDX112","pre-CRO v2",26.5,"Joao Cruz","Joao Cruz",27787,71.4721426059268,199.923132935228,"January","PDX"
"65","2016-01-15,2016-01-18,2016-01-19,2016-01-20,2016-01-21,2016-01-23,2016-01-24,2016-01-25","SDF108","pre-CRO v3",54.5,"Suryakumar Durai","James Lewis,Suryakumar Durai,Tim Kirkbride,Trevor Gudenswager",39194,217.058174836606,134.823019508468,"January","SDF"
"66","2016-01-18,2016-01-19,2016-01-20,2016-01-21,2016-01-22","PDX115","pre-CRO v2",39.5,"Trevor Gudenswager","Trevor Gudenswager",17984,45.067541599639,121.41221633828,"January","PDX"
"67","2016-01-18,2016-01-19,2016-01-20","SDF107","pre-CRO v1",29.5,"Tim Kirkbride","Tim Kirkbride",35382,178.398193905586,254.613179429117,"January","SDF"
"68","2016-01-19,2016-01-20,2016-01-21","SDF111","pre-CRO v2",25,"Justin Carmody","Justin Carmody",38126,75.9569658061113,214.60009990035,"January","SDF"
"69","2016-01-21,2016-01-22,2016-01-25,2016-01-27,2016-01-28","AUS115","pre-CRO v3",22.75,"Lewis Kerin","Lewis Kerin",42892,123.754930984141,161.543101150407,"January","AUS"
"70","2016-01-21,2016-01-22,2016-01-25","SDF114","pre-CRO v1",22,"Matthew Grainger","Matthew Grainger",30671,220.695147061818,64.2567106562048,"January","SDF"
"71","2016-01-22,2016-01-25,2016-01-27","PDX111","pre-CRO v2",23,"Joao Cruz","Joao Cruz",29536,152.888364635787,175.737241223094,"January","PDX"
"72","2016-01-22,2016-01-25,2016-01-27,2016-01-28,2016-01-29","SDF112","pre-CRO v2",40,"Suryakumar Durai","Suryakumar Durai",36990,190.65564843403,89.8145529035189,"January","SDF"
"73","2016-01-28,2016-01-29,2016-02-01,2016-02-02,2016-03-10,2016-03-16,2016-03-17,2016-03-18,2016-03-21,2016-03-22","AUS112","post-CRO v2",57.75,"Tass Tourtsakis","James Lewis,Tass Tourtsakis",42640,217.928247067257,16.5043141871645,"January","AUS"
"74","2016-01-29,2016-01-30,2016-02-01,2016-02-02,2016-02-03","SDF115","pre-CRO v1",25.25,"Matthew Grainger","Matthew Grainger",28352,210.689405166992,93.54274709251,"January","SDF"
"75","2016-02-02,2016-02-03,2016-02-04,2016-02-05,2016-02-08","SDF107","pre-CRO v2",35.75,"Tim Kirkbride","Joao Cruz,Tim Kirkbride",35382,178.398193905586,254.613179429117,"February","SDF"
"76","2016-02-04,2016-02-05,2016-02-08,2016-02-09,2016-02-10","AUS119","pre-CRO v3",21,"Lewis Kerin","Lewis Kerin",45675,57.6263192358708,275.883766370267,"February","AUS"
"77","2016-02-10,2016-02-11,2016-02-12","AUS120","pre-CRO v3",10.25,"James Lewis","James Lewis",41364,90.2381734216608,162.063048341946,"February","AUS"
"78","2016-02-18,2016-02-19","MCI157","pre-CRO v1",14,"Chang Liu","Chang Liu",19447,16.8001586715036,194.389424780354,"February","MCI"
"79","2016-02-22,2016-06-04,2016-06-30,2016-07-01,2016-07-04","PDX107","post-CRO v1",28.75,"Alex Brazel","Alex Brazel,Suryakumar Durai",38144,228.449695967658,99.9924149440681,"February","PDX"
"80","2016-03-10,2016-03-11,2016-03-13,2016-03-14","SDF113","post-CRO v1",27.75,"Joao Cruz","Joao Cruz,Trevor Gudenswager",40386,207.741013903547,29.6667759570195,"March","SDF"
"81","2016-03-21,2016-03-22,2016-03-23,2016-03-24,2016-03-27,2016-03-29","SDF115","pre-CRO v2",53,"Justin Carmody","Justin Carmody",28352,210.689405166992,93.54274709251,"March","SDF"
"82","2016-03-22","SDF106","post-CRO v1",4.25,"Joao Cruz","Joao Cruz",40197,168.509782675808,25.8309010788755,"March","SDF"
"83","2016-04-01,2016-04-04,2016-04-06","JAX107","pre-CRO v1",24.5,"Lewis Kerin","Lewis Kerin",39539,212.338538668008,97.218708728071,"April","JAX"
"84","2016-04-01","MCI157","pre-CRO v2",4,"Alexander Brazel","Alexander Brazel",19447,16.8001586715036,194.389424780354,"April","MCI"
"85","2016-04-01,2016-04-04,2016-04-06","SDF109","post-CRO v1",19,"Joao Cruz","Joao Cruz",27369,158.583263644355,61.6466205956964,"April","SDF"
"86","2016-04-06,2016-04-07,2016-04-08,2016-04-09,2016-04-11,2016-04-12","MCI155","pre-CRO v2",27.75,"Tim Kirkbride","Tim Kirkbride",8709,0.2841727803292,106.757391965385,"April","MCI"
"87","2016-04-08,2016-04-10,2016-04-11","JAX108","pre-CRO v1",31.25,"June Yau","June Yau",28225,96.4853367654494,237.707483833941,"April","JAX"
"88","2016-04-11,2016-04-13,2016-04-14,2016-04-15,2016-04-18,2016-04-19","MCI156","pre-CRO v1",14.5,"Tim Kirkbride","Tim Kirkbride",5474,0.2826158290734,71.1922094102876,"April","MCI"
"89","2016-04-14,2016-04-15,2016-04-16,2016-04-17,2016-04-18","JAX109","pre-CRO v1",30.75,"Lewis Kerin","Lewis Kerin",39076,63.5727927107114,350.084787670395,"April","JAX"
"90","2016-04-14,2016-04-15,2016-04-18","SDF113","post-CRO v2",21.75,"Suryakumar Durai","Suryakumar Durai",40386,207.741013903547,29.6667759570195,"April","SDF"
"91","2016-04-16,2016-04-17,2016-04-18,2016-04-19,2016-04-20,2016-07-04","SDF110","post-CRO v1",32.25,"Joao Cruz","James Lewis,Joao Cruz",40780,178.010254573655,277.839144661263,"April","SDF"
"92","2016-04-19,2016-04-20,2016-04-21,2016-04-22,2016-04-23,2016-04-26","JAX110","pre-CRO v1",35.75,"Alexander Petherick","Alexander Petherick,Lewis Kerin",28395,26.2398446278082,201.838229177901,"April","JAX"
"93","2016-04-19,2016-04-20,2016-04-21,2016-04-22,2016-04-26,2016-04-27,2016-04-28,2016-05-09,2016-05-10,2016-05-11,2016-05-12,2016-05-13","SDF109","post-CRO v2",79,"Suryakumar Durai","Suryakumar Durai",27369,158.583263644355,61.6466205956964,"April","SDF"
"94","2016-04-26,2016-04-27,2016-04-28,2016-04-29,2016-05-02,2016-05-03,2016-05-04,2016-05-13","MCI160","pre-CRO v1",56,"Tim Kirkbride","Tim Kirkbride",29708,0.2751973039722,373.356110686038,"April","MCI"
"95","2016-04-27,2016-04-28,2016-04-29,2016-05-02","JAX107","pre-CRO v2",19.5,"Lewis Kerin","Lewis Kerin",39539,212.338538668008,97.218708728071,"April","JAX"
"96","2016-04-28,2016-04-29,2016-05-02,2016-05-03,2016-05-09,2016-05-10,2016-05-11","JAX113","pre-CRO v1",55,"June Yau","Joao Cruz,June Yau,Justin Carmody",38511,293.082348483291,231.619695178885,"April","JAX"
"97","2016-05-04,2016-05-05,2016-05-06,2016-05-09,2016-05-10,2016-05-11,2016-06-18,2016-06-25","JAX115","pre-CRO v1",73,"Alex Brazel","Alex Brazel,Alexander Petherick,Chang Liu,Justin Carmody",38916,296.348489945123,23.9625484445282,"May","JAX"
"98","2016-05-05","SDF116","pre-CRO v3",7,"Michael Wadley","Michael Wadley",36275,257.521700922613,28.9237666878863,"May","SDF"
"99","2016-05-09,2016-05-10,2016-05-11,2016-05-12,2016-06-11","JAX117","pre-CRO v1",26.75,"Lewis Kerin","Justin Carmody,Lewis Kerin",32764,179.057675442377,170.448282327524,"May","JAX"
"100","2016-05-12,2016-05-13","SDF106","post-CRO v2",14.75,"Joao Cruz","Alexander Brazel,Joao Cruz",40197,168.509782675808,25.8309010788755,"May","SDF"
"101","2016-05-13","SDF116","post-CRO v1",4,"James Lewis","James Lewis",36275,257.521700922613,28.9237666878863,"May","SDF"
"102","2016-06-25,2016-06-30","JAX111","pre-CRO v1",24,"Lewis Kerin","Lewis Kerin",29149,7.2646424383212,312.419893319487,"June","JAX"
"103","2016-06-30,2016-07-01,2016-07-04,2016-07-05,2016-07-06,2016-07-07","SDF108","post-CRO v1",37.75,"Lewis Kerin","Lewis Kerin,Tim Kirkbride",39194,217.058174836606,134.823019508468,"June","SDF"
"104","2016-06-30,2016-07-18,2016-07-19","SDF111","post-CRO v1",31.44,"James Lewis","James Lewis",38126,75.9569658061113,214.60009990035,"June","SDF"
"105","2016-07-01,2016-07-04,2016-07-05,2016-07-07,2016-07-08,2016-07-11,2016-07-15,2016-07-18,2016-07-19","JAX117","post-CRO v1",60,"Justin Carmody","Justin Carmody",32764,179.057675442377,170.448282327524,"July","JAX"
"106","2016-07-06,2016-07-07,2016-07-08","SDF112","post-CRO v1",14,"James Lewis","James Lewis",36990,190.65564843403,89.8145529035189,"July","SDF"
"107","2016-07-21,2016-07-22,2016-07-25,2016-07-28","PDX119","post-CRO v1",21,"James Lewis","James Lewis",46680,76.1740903416102,43.8591800602481,"July","PDX"
"108","2016-07-25","PDX121","post-CRO v1",1.5,"James Lewis","James Lewis",31982,88.3277836815484,205.143822866395,"July","PDX"
